Info    : Load operation for 10 took    2.347 seconds
Info    : Load operation for 10.v1 took    2.063 seconds
Info    : Load operation for 12 took    0.159 seconds
Info    : Load operation for 12-6-4 took    0.392 seconds
Info    : Load operation for 12-6-4.v1 took    0.350 seconds
Info    : Load operation for 12-6-4.v2 took    0.366 seconds
Info    : Load operation for 12-6-trigon took    0.400 seconds
Info    : Load operation for 12-6-trigon.v1 took    0.363 seconds
Info    : Load operation for 12-6-trigon.v2 took    0.358 seconds
Info    : Load operation for 12-6-trigon.v3 took    0.359 seconds
Info    : Load operation for 12-6-trigon.v4 took    0.363 seconds
Info    : Load operation for 12.4.3 took    8.304 seconds
Info    : Load operation for 12.4.3.v1 took    8.226 seconds
Info    : Load operation for 12.v1 took    0.193 seconds
Info    : Load operation for 12.v2 took    0.475 seconds
Info    : Load operation for 12.v3 took    0.481 seconds
Info    : Load operation for 3-8-12 took    0.117 seconds
Info    : Load operation for 3-8-12.v1 took    0.111 seconds
Info    : Load operation for 3-8-12.v2 took    1.588 seconds
Info    : Load operation for 3-8-4-6 took    0.373 seconds
Info    : Load operation for 3-8-4-6.v1 took    0.378 seconds
Info    : Load operation for 3-8-4-6.v5 took    0.695 seconds
Info    : Load operation for 6-4-3 took    0.313 seconds
Info    : Load operation for 6-4-3-Pomerantz took    0.072 seconds
Info    : Load operation for 6-4-3.v1 took    0.333 seconds
Info    : Load operation for 6.5 took    0.330 seconds
Info    : Load operation for 6.5.v1 took    0.331 seconds
Info    : Load operation for 6.5.v2 took    0.634 seconds
Info    : Load operation for 6.5.v3 took    0.344 seconds
Info    : Load operation for 6.5.v4 took    0.321 seconds
Info    : Load operation for 7-shadow took    0.537 seconds
Info    : Load operation for 7-shadow.v1 took    0.538 seconds
Info    : Load operation for 7.4 took    0.421 seconds
Info    : Load operation for 7.4.v1 took    0.452 seconds
Info    : Load operation for 7.6 took    0.522 seconds
Info    : Load operation for 7.6.v1 took    0.542 seconds
Info    : Load operation for 8 6 almost 5 -- starred took    1.200 seconds
Info    : Load operation for 8 6 almost 5 -- starred.v1 took    1.204 seconds
Info    : Load operation for 8 and 8 rings carpet took    2.097 seconds
Info    : Load operation for 8 and 8 rings carpet.v1 took    2.087 seconds
Info    : Load operation for 8-6-5 took   10.781 seconds
Info    : Load operation for 8-6-5.v1 took   10.973 seconds
Info    : Load operation for 8.5 took    0.288 seconds
Info    : Load operation for 8.5.v1 took    0.254 seconds
Info    : Load operation for 8.6 took    2.323 seconds
Info    : Load operation for 8.6.6 took    1.239 seconds
Info    : Load operation for 8.6.6.v1 took    1.337 seconds
Info    : Load operation for 8.6.6.v2 took    1.348 seconds
Info    : Load operation for 9-6 Losange took    0.835 seconds
Info    : Load operation for 9-6 Losange.v1 took    0.850 seconds
Info    : Load operation for 9.6 almost 5 took    1.202 seconds
Info    : Load operation for 9.6 almost 5.v1 took    1.213 seconds
Info    : Load operation for Abbasid Al-Mustansiriyya Madrasa took    1.444 seconds
Info    : Load operation for Abbasid Al-Mustansiriyya Madrasa.v1 took    1.449 seconds
Info    : Load operation for Add Doubt Sin took    0.194 seconds
Info    : Load operation for Add Doubt Sin.v1 took    0.190 seconds
Info    : Load operation for African Birds Migration took    3.313 seconds
Info    : Load operation for African Birds Migration.v1 took    3.326 seconds
Info    : Load operation for Al-Mustansiriyya Gold took    1.532 seconds
Info    : Load operation for Al-Mustansiriyya Gold.v1 took    1.508 seconds
Info    : Load operation for Al-Mustansiriyya Gold.v2 took    1.473 seconds
Info    : Load operation for Alcazar of Seville took    1.893 seconds
Info    : Load operation for Alcazar of Seville.v1 took    1.946 seconds
Info    : Load operation for Alcazar of Seville.v2 took    1.909 seconds
Info    : Load operation for Alhambra - Golden Room took    0.171 seconds
Info    : Load operation for Alhambra - Golden Room.v1 took    0.143 seconds
Info    : Load operation for Alien TO took    0.065 seconds
Info    : Load operation for Alien TO.v1 took    0.053 seconds
Info    : Load operation for Almost took    1.929 seconds
Info    : Load operation for Almost.v1 took    1.924 seconds
Info    : Load operation for Are you a square took    0.191 seconds
Info    : Load operation for Are you a square.v1 took    0.184 seconds
Info    : Load operation for Bird took    0.072 seconds
Info    : Load operation for Bird.v1 took    0.064 seconds
Info    : Load operation for Bird.v2 took    0.079 seconds
Info    : Load operation for Bird.v3 took    0.059 seconds
Info    : Load operation for Bird.v4 took    0.706 seconds
Info    : Load operation for Bird.v5 took    0.469 seconds
Info    : Load operation for Blood Vessels took    1.817 seconds
Info    : Load operation for Blood Vessels.v1 took    1.795 seconds
Info    : Load operation for Bloom of May took   13.106 seconds
Info    : Load operation for Bloom of May.v1 took   12.771 seconds
Info    : Load operation for Bluer shade of sky took    0.259 seconds
Info    : Load operation for Bluer shade of sky.v1 took    0.219 seconds
Info    : Load operation for Bone took    0.237 seconds
Info    : Load operation for Bone.v1 took    0.329 seconds
Info    : Load operation for Bone.v2 took    0.127 seconds
Info    : Load operation for Broug Abd al-Samad Complex took    0.391 seconds
Info    : Load operation for Broug Ben Yusuf Madrasa took    4.337 seconds
Info    : Load operation for Broug Ben Yusuf Madrasa.v1 took    2.049 seconds
Info    : Load operation for Broug Ben Yusuf Madrasa.v3 took    5.274 seconds
Info    : Load operation for Broug Capella Palatina took    0.102 seconds
Info    : Load operation for Broug Capella Palatina.v1 took    0.110 seconds
Info    : Load operation for Broug East Tower Kharraqan took    0.230 seconds
Info    : Load operation for Broug East Tower Kharraqan.v2 took    0.202 seconds
Info    : Load operation for Broug Esrefoglu took    0.061 seconds
Info    : Load operation for Broug Esrefoglu.v1 took    0.043 seconds
Info    : Load operation for Broug Esrefoglu.v2 took    0.074 seconds
Info    : Load operation for Broug Esrefoglu.v3 took    0.068 seconds
Info    : Load operation for Broug Esrefoglu.v4 took    0.148 seconds
Info    : Load operation for Broug Great Mosque Cordoba took    0.374 seconds
Info    : Load operation for Broug Great Mosque Cordoba.v1 took    0.438 seconds
Info    : Load operation for Broug Great Mosque Cordoba.v2 took    0.427 seconds
Info    : Load operation for Broug Great Mosque of Damascas took    0.110 seconds
Info    : Load operation for Broug Great Mosque of Herat took    1.320 seconds
Info    : Load operation for Broug Great Mosque of Kairouan took    1.064 seconds
Info    : Load operation for Broug Great Mosque of Kairouan.v1 took    1.126 seconds
Info    : Load operation for Broug Huand Hatun Complex took    0.377 seconds
Info    : Load operation for Broug Huand Hatun Complex.v1 took    0.417 seconds
Info    : Load operation for Broug Huand Hatun Complex.v2 took    0.412 seconds
Info    : Load operation for Broug Huand Hatun Complex.v3 took    0.576 seconds
Info    : Load operation for Broug Huand Hatun Complex.v4 took    0.586 seconds
Info    : Load operation for Broug Huand Hatun Complex.v5 took    0.573 seconds
Info    : Load operation for Broug Koran of Rashid al-Din took    0.108 seconds
Info    : Load operation for Broug Koran of Rashid al-Din.v1 took    0.112 seconds
Info    : Load operation for Broug Mosque of al-Salih Tala'i took    1.062 seconds
Info    : Load operation for Broug Mosque of al-Salih Tala'i.v1 took    1.715 seconds
Info    : Load operation for Broug Mosque of al-Salih Tala'i.v3 took    0.157 seconds
Info    : Load operation for Broug Mosque of al-Salih Tala'i.v4 took    1.694 seconds
Info    : Load operation for Broug Mustansiriya Madrasa took    0.119 seconds
Info    : Load operation for Broug Mustansiriya Madrasa.v1 took    0.140 seconds
Info    : Load operation for Broug Tomb of Jalal al-Din Hussein took    3.594 seconds
Info    : Load operation for Candyland took    2.182 seconds
Info    : Load operation for Candyland.v1 took    2.184 seconds
Info    : Load operation for Chikipoo took    1.197 seconds
Info    : Load operation for Chikipoo.v1 took    1.250 seconds
Info    : Load operation for Child sky of a thousand suns took    5.732 seconds
Info    : Load operation for Child sky of a thousand suns.v1 took    5.698 seconds
Info    : Load operation for Circulatory System took    0.096 seconds
Info    : Load operation for Circulatory System.v1 took    0.097 seconds
Info    : Load operation for Circus took    1.123 seconds
Info    : Load operation for Circus.v1 took    1.121 seconds
Info    : Load operation for Coffee Hankerchief took    2.016 seconds
Info    : Load operation for Coffee Hankerchief.v1 took    2.017 seconds
Info    : Load operation for Curvy Hex took    0.609 seconds
Info    : Load operation for Curvy Hex.v1 took    0.658 seconds
Info    : Load operation for dentelle took    3.406 seconds
Info    : Load operation for dentelle.v1 took    3.427 seconds
Info    : Load operation for Elegant Monster took    0.208 seconds
Info    : Load operation for Elegant Monster.v1 took    0.198 seconds
Info    : Load operation for Elegant Monster.v2 took    0.207 seconds
Info    : Load operation for epc_014 took    0.279 seconds
Info    : Load operation for epc_014.v1 took    0.274 seconds
Info    : Load operation for epc_014.v2 took    0.271 seconds
Info    : Load operation for epc_014.v3 took    1.514 seconds
Info    : Load operation for First Curve took    0.085 seconds
Info    : Load operation for First Curve.v1 took    0.058 seconds
Info    : Load operation for First Curve.v2 took    0.055 seconds
Info    : Load operation for First Curve.v3 took    0.058 seconds
Info    : Load operation for First Curve.v4 took    0.062 seconds
Info    : Load operation for Floor took    2.900 seconds
Info    : Load operation for Flying Vistas of Earth took    0.194 seconds
Info    : Load operation for Flying Vistas of Earth.v1 took    0.183 seconds
Info    : Load operation for Girih Crab took    3.179 seconds
Info    : Load operation for Girih Crab.v1 took    3.150 seconds
Info    : Load operation for GirihInflation10 took    9.314 seconds
Info    : Load operation for GirihInflation10.v1 took    9.239 seconds
Info    : Load operation for GirihInflation10.v2 took    9.043 seconds
Info    : Load operation for GirihInflation10.v3 took    9.353 seconds
Info    : Load operation for GirihPat1 took    1.861 seconds
Info    : Load operation for GirihPat1.v1 took    1.937 seconds
Info    : Load operation for GirihPat1.v2 took    4.433 seconds
Info    : Load operation for GirihPat1.v3 took    1.306 seconds
Info    : Load operation for GirihPat1.v6 took    4.903 seconds
Info    : Load operation for Golden Cage took    1.041 seconds
Info    : Load operation for Golden Cage.v1 took    1.088 seconds
Info    : Load operation for Green Islands took    2.018 seconds
Info    : Load operation for Green Islands.v1 took    2.013 seconds
Info    : Load operation for Green Islands.v2 took    1.994 seconds
Info    : Load operation for Green Mosque took    0.675 seconds
Info    : Load operation for Green Mosque.v1 took    0.681 seconds
Info    : Load operation for Ilkhanid Uljaytu took    0.883 seconds
Info    : Load operation for Ilkhanid Uljaytu.v1 took    0.875 seconds
Info    : Load operation for Kumiko took    0.189 seconds
Info    : Load operation for Kumiko.v1 took    0.534 seconds
Info    : Load operation for leaf  took    0.562 seconds
Info    : Load operation for Locked Ribbon took    0.136 seconds
Info    : Load operation for Locked Ribbon.v1 took    0.099 seconds
Info    : Load operation for Malatya took    2.125 seconds
Info    : Load operation for Malatya.v1 took    2.152 seconds
Info    : Load operation for Mamluk Quran took    3.151 seconds
Info    : Load operation for Mamluk Quran.v1 took    3.161 seconds
Info    : Load operation for Mexican Suns took    2.177 seconds
Info    : Load operation for Mexican Suns.v1 took    2.179 seconds
Info    : Load operation for Mexuar1 took    0.292 seconds
Info    : Load operation for Mexuar1.v1 took    0.306 seconds
Info    : Load operation for Mexuar1.v2 took    0.288 seconds
Info    : Load operation for Mexuar1.v3 took    0.303 seconds
Info    : Load operation for More alien took    0.333 seconds
Info    : Load operation for More alien.v1 took    0.347 seconds
Info    : Load operation for Museum1 took    1.455 seconds
Info    : Load operation for Museum2 took    0.687 seconds
Info    : Load operation for Museum2.v1 took    0.670 seconds
Info    : Load operation for Museum2.v2 took    0.664 seconds
Info    : Load operation for Museum2.v3 took    0.664 seconds
Info    : Load operation for Museum2.v4 took    0.692 seconds
Info    : Load operation for Ochre Silicate took    0.287 seconds
Info    : Load operation for Ochre Silicate.v1 took    0.277 seconds
Info    : Load operation for pbn_7 took    4.286 seconds
Info    : Load operation for pbn_7.v1 took    4.264 seconds
Info    : Load operation for Penrose Dots took    0.503 seconds
Info    : Load operation for Penrose Dots.v1 took    0.493 seconds
Info    : Load operation for Penrose Monster took    0.198 seconds
Info    : Load operation for Penrose Monster.v1 took    0.204 seconds
Info    : Load operation for Petal took    0.070 seconds
Info    : Load operation for pipes took    2.118 seconds
Info    : Load operation for pipes.v1 took    2.104 seconds
Info    : Load operation for PropagationTest took    0.652 seconds
Info    : Load operation for PropagationTest.v1 took    0.392 seconds
Info    : Load operation for Rhombus took    0.842 seconds
Info    : Load operation for rhombus-10 took    0.936 seconds
Info    : Load operation for Rhombus.v1 took    1.660 seconds
Info    : Load operation for Rock the Hive took    0.223 seconds
Info    : Load operation for Rock the Hive.v1 took    0.227 seconds
Info    : Load operation for Sarahs took    0.276 seconds
Info    : Load operation for Sarahs.v1 took    0.267 seconds
Info    : Load operation for Sarahs.v2 took    0.278 seconds
Info    : Load operation for SimpleStar took    0.441 seconds
Info    : Load operation for SimpleStar.v1 took    0.422 seconds
Info    : Load operation for SimpleStar.v2 took    0.436 seconds
Info    : Load operation for Squoc took    0.418 seconds
Info    : Load operation for Squoc.v1 took    0.382 seconds
Info    : Load operation for Squoctogon took    0.183 seconds
Info    : Load operation for Squoctogon.v1 took    0.187 seconds
Info    : Load operation for star took    0.284 seconds
Info    : Load operation for star.v1 took    0.276 seconds
Info    : Load operation for Sultan Lodge took    1.236 seconds
Info    : Load operation for Sultan Lodge.v1 took    1.220 seconds
Info    : Load operation for Tangle Diamonds took    1.826 seconds
Info    : Load operation for Tangle Diamonds.v1 took    1.784 seconds
Info    : Load operation for Test Pattern 2 took    0.053 seconds
Info    : Load operation for Test Pattern 2.v1 took    0.055 seconds
Info    : Load operation for Test Pattern 2.v2 took    0.049 seconds
Info    : Load operation for Test Pattern 2.v3 took    0.049 seconds
Info    : Load operation for Test00 took    0.386 seconds
Info    : Load operation for Test01 took    0.092 seconds
Info    : Load operation for Test02 took    0.233 seconds
Info    : Load operation for Test02.v1 took    0.248 seconds
Info    : Load operation for Test03 took    0.272 seconds
Info    : Load operation for Test03.v1 took    0.159 seconds
Info    : Load operation for Test03.v2 took    0.523 seconds
Info    : Load operation for Test03.v3 took    0.918 seconds
Info    : Load operation for Test04 took    0.246 seconds
Info    : Load operation for Test04.v1 took    0.412 seconds
Info    : Load operation for Test04.v2 took    0.543 seconds
Info    : Load operation for Test05 took    1.304 seconds
Info    : Load operation for Test05.v1 took    1.316 seconds
Info    : Load operation for Test06 took    2.982 seconds
Info    : Load operation for Test07 took    0.881 seconds
Info    : Load operation for Test07.v1 took    0.381 seconds
Info    : Load operation for Test08 took    0.427 seconds
Info    : Load operation for Test08.v2 took    0.446 seconds
Info    : Load operation for Test08.v5 took    1.904 seconds
Info    : Load operation for Test08.v6 took    0.912 seconds
Info    : Load operation for Test09 took    0.711 seconds
Info    : Load operation for Test10 took    1.356 seconds
Info    : Load operation for Test10.v1 took    2.561 seconds
Info    : Load operation for Test10.v10 took   16.965 seconds
Info    : Load operation for Test10.v2 took    3.427 seconds
Info    : Load operation for Test10.v3 took    3.354 seconds
Info    : Load operation for Test10.v8 took   23.096 seconds
Info    : Load operation for Test10.v9 took    2.535 seconds
Info    : Load operation for Test11 took    1.681 seconds
Info    : Load operation for Test11.v1 took    1.631 seconds
Info    : Load operation for Test11.v10 took    1.288 seconds
Info    : Load operation for Test11.v11 took    0.517 seconds
Info    : Load operation for Test11.v4 took    1.633 seconds
Info    : Load operation for Test11.v6 took    1.277 seconds
Info    : Load operation for Test11.v8 took    1.296 seconds
Info    : Load operation for Test11.v9 took    1.316 seconds
Info    : Load operation for Test12Rect took    0.055 seconds
Info    : Load operation for Test12Rect.v1 took    0.054 seconds
Info    : Load operation for Test12Rect.v2 took    0.055 seconds
Info    : Load operation for Test12Rect.v3 took    0.057 seconds
Info    : Load operation for Test12Rect.v4 took    0.053 seconds
Info    : Load operation for Test12Rect.v5 took    0.047 seconds
Info    : Load operation for Test12RectInterlace took    0.046 seconds
Info    : Load operation for Test12RectOutline took    0.046 seconds
Info    : Load operation for Test13 took    1.367 seconds
Info    : Load operation for Test13.v1 took    1.309 seconds
Info    : Load operation for Test13.v3 took    0.733 seconds
Info    : Load operation for Test13.v4 took    1.107 seconds
Info    : Load operation for Test13.v5 took    0.614 seconds
Info    : Load operation for Test13.v6 took    0.653 seconds
Info    : Load operation for Test13.v7 took    0.599 seconds
Info    : Load operation for Test14 took    0.615 seconds
Info    : Load operation for Test15 took    0.738 seconds
Info    : Load operation for Test15.v1 took    0.734 seconds
Info    : Load operation for Test15.v3 took    0.711 seconds
Info    : Load operation for Test16 took    0.323 seconds
Info    : Load operation for Test16.v1 took    0.097 seconds
Info    : Load operation for Test16.v2 took    0.099 seconds
Info    : Load operation for Test17 took    0.047 seconds
Info    : Load operation for Test17.v1 took    0.043 seconds
Info    : Load operation for Test17.v2 took    0.043 seconds
Info    : Load operation for Test18 took    0.051 seconds
Info    : Load operation for thickness took    1.759 seconds
Info    : Load operation for thickness.v1 took    1.734 seconds
Info    : Load operation for Timurid Tumaq Aqa took    0.673 seconds
Info    : Load operation for Timurid Tumaq Aqa.v1 took    0.657 seconds
Info    : Load operation for Timurid Tumaq Aqa.v2 took    0.808 seconds
Info    : Load operation for Triangulated took    1.145 seconds
Info    : Load operation for Triangulated.v1 took    1.156 seconds
Info    : Load operation for uniform-12-3 took    1.968 seconds
Info    : Load operation for USA took    1.095 seconds
Info    : Load operation for USA.v1 took    1.077 seconds
Info    : Load operation for Vanda took    0.868 seconds
Info    : Load operation for Vanda.v1 took    1.230 seconds
Info    : Load operation for Vanda.v10 took    0.638 seconds
Info    : Load operation for Vanda.v2 took    0.933 seconds
Info    : Load operation for Vanda.v3 took    0.209 seconds
Info    : Load operation for Vanda.v4 took    0.470 seconds
Info    : Load operation for Vanda.v5 took    0.516 seconds
Info    : Load operation for Vanda.v6 took    0.521 seconds
Info    : Load operation for Vanda.v7 took    2.552 seconds
Info    : Load operation for Vanda.v8 took    2.536 seconds
Info    : Load operation for Vanda.v9 took    2.971 seconds
Info    : Load operation for Vanda2 took    0.314 seconds
Info    : Load operation for Vanda2.v1 took    0.278 seconds
Info    : Load operation for Vanda2.v2 took    0.462 seconds
Info    : Load operation for Vanda2.v3 took    0.427 seconds
Info    : Load operation for Vanda2.v4 took    0.419 seconds
Info    : Load operation for Water Rings took    1.085 seconds
Info    : Load operation for Water Rings.v1 took    1.078 seconds
Info    : Load operation for wawa took    0.662 seconds
Info    : Load operation for wawa.v1 took    0.680 seconds
Info    : Load operation for wawa.v2 took    0.662 seconds
Info    : Load operation for white stars took    0.215 seconds
Info    : Load operation for white stars.v1 took    0.224 seconds
Info    : Load operation for wonka took    0.220 seconds
Info    : Load operation for wonka.v1 took    0.225 seconds
Info    : Load operation for wonka.v2 took    0.223 seconds
Info    : Load operation for wonka.v3 took    0.234 seconds
