Info    : ========== "10" ==========
Debug   : "10"  found in  "C:/dev/tp/media/designs/new_designs/10.v1.xml"
Debug   : "10"  found in  "C:/dev/tp/media/designs/new_designs/10.xml"
Info    : ========== "12" ==========
Debug   : "12"  found in  "C:/dev/tp/media/designs/new_designs/12.v1.xml"
Debug   : "12"  found in  "C:/dev/tp/media/designs/new_designs/12.v2.xml"
Debug   : "12"  found in  "C:/dev/tp/media/designs/new_designs/12.v3.xml"
Debug   : "12"  found in  "C:/dev/tp/media/designs/new_designs/12.xml"
Info    : ========== "12-6-Trigon" ==========
Debug   : "12-6-Trigon"  found in  "C:/dev/tp/media/designs/new_designs/PropagationTest.v1.xml"
Debug   : "12-6-Trigon"  found in  "C:/dev/tp/media/designs/new_designs/PropagationTest.xml"
Debug   : "12-6-Trigon"  found in  "C:/dev/tp/media/designs/new_designs/Test09.xml"
Debug   : "12-6-Trigon"  found in  "C:/dev/tp/media/designs/original/12-6-trigon.v1.xml"
Debug   : "12-6-Trigon"  found in  "C:/dev/tp/media/designs/original/12-6-trigon.v2.xml"
Debug   : "12-6-Trigon"  found in  "C:/dev/tp/media/designs/original/12-6-trigon.v3.xml"
Debug   : "12-6-Trigon"  found in  "C:/dev/tp/media/designs/original/12-6-trigon.v4.xml"
Debug   : "12-6-Trigon"  found in  "C:/dev/tp/media/designs/original/12-6-trigon.xml"
Info    : ========== "12-6-Trigon.v1" ==========
Info    :      not used
Info    : ========== "12.18" ==========
Info    :      not used
Info    : ========== "14" ==========
Info    :      not used
Info    : ========== "16.8" ==========
Info    :      not used
Info    : ========== "18" ==========
Info    :      not used
Info    : ========== "18.9" ==========
Info    :      not used
Info    : ========== "24.12" ==========
Info    :      not used
Info    : ========== "3-8-12" ==========
Debug   : "3-8-12"  found in  "C:/dev/tp/media/designs/original/3-8-12.v1.xml"
Debug   : "3-8-12"  found in  "C:/dev/tp/media/designs/original/3-8-12.xml"
Info    : ========== "3-8-12 pieces" ==========
Debug   : "3-8-12 pieces"  found in  "C:/dev/tp/media/designs/original/Ochre Silicate.v1.xml"
Debug   : "3-8-12 pieces"  found in  "C:/dev/tp/media/designs/original/Ochre Silicate.xml"
Info    : ========== "3-8-4-6" ==========
Debug   : "3-8-4-6"  found in  "C:/dev/tp/media/designs/original/3-8-4-6.v1.xml"
Debug   : "3-8-4-6"  found in  "C:/dev/tp/media/designs/original/3-8-4-6.v5.xml"
Debug   : "3-8-4-6"  found in  "C:/dev/tp/media/designs/original/3-8-4-6.xml"
Info    : ========== "3.12^2" ==========
Debug   : "3.12^2"  found in  "C:/dev/tp/media/designs/original/Water Rings.v1.xml"
Debug   : "3.12^2"  found in  "C:/dev/tp/media/designs/original/Water Rings.xml"
Info    : ========== "3.4.6" ==========
Info    :      not used
Info    : ========== "4.5" ==========
Debug   : "4.5"  found in  "C:/dev/tp/media/designs/original/Are you a square.v1.xml"
Debug   : "4.5"  found in  "C:/dev/tp/media/designs/original/Are you a square.xml"
Info    : ========== "4.6.12" ==========
Info    :      not used
Info    : ========== "4.7 Star" ==========
Info    :      not used
Info    : ========== "4.7 Stars" ==========
Info    :      not used
Info    : ========== "4.8^2" ==========
Debug   : "4.8^2"  found in  "C:/dev/tp/media/designs/original/USA.v1.xml"
Debug   : "4.8^2"  found in  "C:/dev/tp/media/designs/original/USA.xml"
Info    : ========== "4^4" ==========
Debug   : "4^4"  found in  "C:/dev/tp/media/designs/new_designs/Broug Ben Yusuf Madrasa.v1.xml"
Debug   : "4^4"  found in  "C:/dev/tp/media/designs/new_designs/Broug Ben Yusuf Madrasa.v3.xml"
Debug   : "4^4"  found in  "C:/dev/tp/media/designs/new_designs/Broug Ben Yusuf Madrasa.xml"
Debug   : "4^4"  found in  "C:/dev/tp/media/designs/new_designs/Broug Capella Palatina.v1.xml"
Debug   : "4^4"  found in  "C:/dev/tp/media/designs/new_designs/Broug Capella Palatina.xml"
Debug   : "4^4"  found in  "C:/dev/tp/media/designs/new_designs/Broug East Tower Kharraqan.v2.xml"
Debug   : "4^4"  found in  "C:/dev/tp/media/designs/new_designs/Broug East Tower Kharraqan.xml"
Debug   : "4^4"  found in  "C:/dev/tp/media/designs/new_designs/Broug Huand Hatun Complex.v3.xml"
Debug   : "4^4"  found in  "C:/dev/tp/media/designs/new_designs/Broug Huand Hatun Complex.v4.xml"
Debug   : "4^4"  found in  "C:/dev/tp/media/designs/new_designs/Broug Huand Hatun Complex.v5.xml"
Debug   : "4^4"  found in  "C:/dev/tp/media/designs/new_designs/Broug Mosque of al-Salih Tala'i.v1.xml"
Debug   : "4^4"  found in  "C:/dev/tp/media/designs/new_designs/Broug Mosque of al-Salih Tala'i.v3.xml"
Debug   : "4^4"  found in  "C:/dev/tp/media/designs/new_designs/Broug Mosque of al-Salih Tala'i.v4.xml"
Debug   : "4^4"  found in  "C:/dev/tp/media/designs/new_designs/Broug Mosque of al-Salih Tala'i.xml"
Debug   : "4^4"  found in  "C:/dev/tp/media/designs/new_designs/Broug Tomb of Jalal al-Din Hussein.xml"
Debug   : "4^4"  found in  "C:/dev/tp/media/designs/new_designs/Test00.xml"
Debug   : "4^4"  found in  "C:/dev/tp/media/designs/new_designs/Test02.v1.xml"
Debug   : "4^4"  found in  "C:/dev/tp/media/designs/new_designs/Test02.xml"
Debug   : "4^4"  found in  "C:/dev/tp/media/designs/new_designs/Test03.v1.xml"
Debug   : "4^4"  found in  "C:/dev/tp/media/designs/new_designs/Test03.xml"
Debug   : "4^4"  found in  "C:/dev/tp/media/designs/new_designs/Test12Rect.v1.xml"
Debug   : "4^4"  found in  "C:/dev/tp/media/designs/new_designs/Test12Rect.v2.xml"
Debug   : "4^4"  found in  "C:/dev/tp/media/designs/new_designs/Test12Rect.v3.xml"
Debug   : "4^4"  found in  "C:/dev/tp/media/designs/new_designs/Test12Rect.v4.xml"
Debug   : "4^4"  found in  "C:/dev/tp/media/designs/new_designs/Test12Rect.v5.xml"
Debug   : "4^4"  found in  "C:/dev/tp/media/designs/new_designs/Test12Rect.xml"
Debug   : "4^4"  found in  "C:/dev/tp/media/designs/new_designs/Test12RectInterlace.xml"
Debug   : "4^4"  found in  "C:/dev/tp/media/designs/new_designs/Test12RectOutline.xml"
Debug   : "4^4"  found in  "C:/dev/tp/media/designs/new_designs/Test13.v1.xml"
Debug   : "4^4"  found in  "C:/dev/tp/media/designs/new_designs/Test13.v3.xml"
Debug   : "4^4"  found in  "C:/dev/tp/media/designs/new_designs/Test13.v4.xml"
Debug   : "4^4"  found in  "C:/dev/tp/media/designs/new_designs/Test13.v5.xml"
Debug   : "4^4"  found in  "C:/dev/tp/media/designs/new_designs/Test13.v6.xml"
Debug   : "4^4"  found in  "C:/dev/tp/media/designs/new_designs/Test13.v7.xml"
Debug   : "4^4"  found in  "C:/dev/tp/media/designs/new_designs/Test13.xml"
Info    : ========== "4^4.v1" ==========
Debug   : "4^4.v1"  found in  "C:/dev/tp/media/designs/new_designs/Broug Koran of Rashid al-Din.v1.xml"
Debug   : "4^4.v1"  found in  "C:/dev/tp/media/designs/new_designs/Broug Koran of Rashid al-Din.xml"
Info    : ========== "6" ==========
Debug   : "6"  found in  "C:/dev/tp/media/designs/new_designs/Broug Abd al-Samad Complex.xml"
Debug   : "6"  found in  "C:/dev/tp/media/designs/new_designs/Broug Great Mosque of Damascas.xml"
Debug   : "6"  found in  "C:/dev/tp/media/designs/new_designs/Broug Great Mosque of Herat.xml"
Debug   : "6"  found in  "C:/dev/tp/media/designs/new_designs/Test03.v2.xml"
Debug   : "6"  found in  "C:/dev/tp/media/designs/new_designs/Test03.v3.xml"
Debug   : "6"  found in  "C:/dev/tp/media/designs/new_designs/Test06.xml"
Info    : ========== "6 Losange" ==========
Debug   : "6 Losange"  found in  "C:/dev/tp/media/designs/original/Circulatory System.v1.xml"
Debug   : "6 Losange"  found in  "C:/dev/tp/media/designs/original/Circulatory System.xml"
Debug   : "6 Losange"  found in  "C:/dev/tp/media/designs/original/Flying Vistas of Earth.v1.xml"
Debug   : "6 Losange"  found in  "C:/dev/tp/media/designs/original/Flying Vistas of Earth.xml"
Info    : ========== "6 Motif" ==========
Debug   : "6 Motif"  found in  "C:/dev/tp/media/designs/new_designs/epc_014.v1.xml"
Debug   : "6 Motif"  found in  "C:/dev/tp/media/designs/new_designs/epc_014.v2.xml"
Debug   : "6 Motif"  found in  "C:/dev/tp/media/designs/new_designs/epc_014.v3.xml"
Debug   : "6 Motif"  found in  "C:/dev/tp/media/designs/new_designs/epc_014.xml"
Info    : ========== "6 Motif.v1" ==========
Info    :      not used
Info    : ========== "6 overlapped" ==========
Debug   : "6 overlapped"  found in  "C:/dev/tp/media/designs/new_designs/Broug Mustansiriya Madrasa.v1.xml"
Debug   : "6 overlapped"  found in  "C:/dev/tp/media/designs/new_designs/Broug Mustansiriya Madrasa.xml"
Warning : "6 overlapped" : tiled overlaps
Warning : "6 overlapped" : proto map intersecting edges
Warning : "6 overlapped" : fill map verify errors
Warning : "6 overlapped" : fill map intersecting edges
Info    : ========== "6 overlapped.v4" ==========
Info    :      not used
Warning : "6 overlapped.v4" : tiled overlaps
Warning : "6 overlapped.v4" : proto map intersecting edges
Warning : "6 overlapped.v4" : fill map verify errors
Info    : ========== "6 scaled x2" ==========
Debug   : "6 scaled x2"  found in  "C:/dev/tp/media/designs/new_designs/Broug Esrefoglu.v1.xml"
Debug   : "6 scaled x2"  found in  "C:/dev/tp/media/designs/new_designs/Broug Esrefoglu.v2.xml"
Debug   : "6 scaled x2"  found in  "C:/dev/tp/media/designs/new_designs/Broug Esrefoglu.v3.xml"
Debug   : "6 scaled x2"  found in  "C:/dev/tp/media/designs/new_designs/Broug Esrefoglu.v4.xml"
Debug   : "6 scaled x2"  found in  "C:/dev/tp/media/designs/new_designs/Broug Esrefoglu.xml"
Info    : ========== "6.4 Boats" ==========
Debug   : "6.4 Boats"  found in  "C:/dev/tp/media/designs/original/Rock the Hive.v1.xml"
Debug   : "6.4 Boats"  found in  "C:/dev/tp/media/designs/original/Rock the Hive.xml"
Info    : ========== "6.4 Circles" ==========
Debug   : "6.4 Circles"  found in  "C:/dev/tp/media/designs/original/Bluer shade of sky.v1.xml"
Debug   : "6.4 Circles"  found in  "C:/dev/tp/media/designs/original/Bluer shade of sky.xml"
Info    : ========== "6.5" ==========
Debug   : "6.5"  found in  "C:/dev/tp/media/designs/original/6.5.v1.xml"
Debug   : "6.5"  found in  "C:/dev/tp/media/designs/original/6.5.v2.xml"
Debug   : "6.5"  found in  "C:/dev/tp/media/designs/original/6.5.v3.xml"
Debug   : "6.5"  found in  "C:/dev/tp/media/designs/original/6.5.v4.xml"
Debug   : "6.5"  found in  "C:/dev/tp/media/designs/original/6.5.xml"
Info    : ========== "6.5 flower" ==========
Info    :      not used
Info    : ========== "6.5x6" ==========
Info    :      not used
Info    : ========== "6.v1" ==========
Debug   : "6.v1"  found in  "C:/dev/tp/media/designs/new_designs/Test14.xml"
Warning : "6.v1" : tiled overlaps
Warning : "6.v1" : proto map intersecting edges
Warning : "6.v1" : fill map verify errors
Info    : ========== "7.4" ==========
Info    :      not used
Info    : ========== "7.6" ==========
Debug   : "7.6"  found in  "C:/dev/tp/media/designs/original/7-shadow.v1.xml"
Debug   : "7.6"  found in  "C:/dev/tp/media/designs/original/7-shadow.xml"
Debug   : "7.6"  found in  "C:/dev/tp/media/designs/original/7.4.v1.xml"
Debug   : "7.6"  found in  "C:/dev/tp/media/designs/original/7.4.xml"
Debug   : "7.6"  found in  "C:/dev/tp/media/designs/original/7.6.v1.xml"
Debug   : "7.6"  found in  "C:/dev/tp/media/designs/original/7.6.xml"
Info    : ========== "7.6.5" ==========
Info    :      not used
Info    : ========== "8" ==========
Info    :      not used
Info    : ========== "8 6 ~5" ==========
Debug   : "8 6 ~5"  found in  "C:/dev/tp/media/designs/original/8 6 almost 5 -- starred.v1.xml"
Debug   : "8 6 ~5"  found in  "C:/dev/tp/media/designs/original/8 6 almost 5 -- starred.xml"
Info    : ========== "8 and 8" ==========
Debug   : "8 and 8"  found in  "C:/dev/tp/media/designs/original/Blood Vessels.v1.xml"
Debug   : "8 and 8"  found in  "C:/dev/tp/media/designs/original/Blood Vessels.xml"
Debug   : "8 and 8"  found in  "C:/dev/tp/media/designs/original/Golden Cage.v1.xml"
Debug   : "8 and 8"  found in  "C:/dev/tp/media/designs/original/Golden Cage.xml"
Info    : ========== "8 Ring" ==========
Debug   : "8 Ring"  found in  "C:/dev/tp/media/designs/original/8 and 8 rings carpet.v1.xml"
Debug   : "8 Ring"  found in  "C:/dev/tp/media/designs/original/8 and 8 rings carpet.xml"
Info    : ========== "8-6-5" ==========
Debug   : "8-6-5"  found in  "C:/dev/tp/media/designs/original/8-6-5.v1.xml"
Debug   : "8-6-5"  found in  "C:/dev/tp/media/designs/original/8-6-5.xml"
Debug   : "8-6-5"  found in  "C:/dev/tp/media/designs/original/Coffee Hankerchief.v1.xml"
Debug   : "8-6-5"  found in  "C:/dev/tp/media/designs/original/Coffee Hankerchief.xml"
Warning : "8-6-5" : tiled overlaps
Warning : "8-6-5" : proto map verify errors
Warning : "8-6-5" : proto map intersecting edges
Warning : "8-6-5" : fill map verify errors
Warning : "8-6-5" : fill map intersecting edges
Info    : ========== "8.12" ==========
Info    :      not used
Info    : ========== "8.5" ==========
Info    :      not used
Info    : ========== "8.5 and some" ==========
Debug   : "8.5 and some"  found in  "C:/dev/tp/media/designs/new_designs/Test15.xml"
Debug   : "8.5 and some"  found in  "C:/dev/tp/media/designs/original/8.5.v1.xml"
Debug   : "8.5 and some"  found in  "C:/dev/tp/media/designs/original/8.5.xml"
Info    : ========== "8.5 and some.v1" ==========
Debug   : "8.5 and some.v1"  found in  "C:/dev/tp/media/designs/new_designs/Test15.v1.xml"
Debug   : "8.5 and some.v1"  found in  "C:/dev/tp/media/designs/new_designs/Test15.v3.xml"
Info    : ========== "8.6" ==========
Debug   : "8.6"  found in  "C:/dev/tp/media/designs/new_designs/8.6.xml"
Warning : "8.6" : tiled overlaps
Warning : "8.6" : proto map verify errors
Warning : "8.6" : proto map intersecting edges
Warning : "8.6" : fill map verify errors
Info    : ========== "8.6.6" ==========
Debug   : "8.6.6"  found in  "C:/dev/tp/media/designs/new_designs/8.6.6.v1.xml"
Debug   : "8.6.6"  found in  "C:/dev/tp/media/designs/new_designs/8.6.6.v2.xml"
Debug   : "8.6.6"  found in  "C:/dev/tp/media/designs/new_designs/8.6.6.xml"
Info    : ========== "8_var" ==========
Debug   : "8_var"  found in  "C:/dev/tp/media/designs/original/Tangle Diamonds.v1.xml"
Debug   : "8_var"  found in  "C:/dev/tp/media/designs/original/Tangle Diamonds.xml"
Info    : ========== "9.12" ==========
Info    :      not used
Info    : ========== "9.5.3.6" ==========
Debug   : "9.5.3.6"  found in  "C:/dev/tp/media/designs/original/Bloom of May.v1.xml"
Debug   : "9.5.3.6"  found in  "C:/dev/tp/media/designs/original/Bloom of May.xml"
Debug   : "9.5.3.6"  found in  "C:/dev/tp/media/designs/original/Child sky of a thousand suns.v1.xml"
Debug   : "9.5.3.6"  found in  "C:/dev/tp/media/designs/original/Child sky of a thousand suns.xml"
Debug   : "9.5.3.6"  found in  "C:/dev/tp/media/designs/original/Green Islands.v1.xml"
Debug   : "9.5.3.6"  found in  "C:/dev/tp/media/designs/original/Green Islands.v2.xml"
Debug   : "9.5.3.6"  found in  "C:/dev/tp/media/designs/original/Green Islands.xml"
Info    : ========== "9.6" ==========
Debug   : "9.6"  found in  "C:/dev/tp/media/designs/original/Triangulated.v1.xml"
Debug   : "9.6"  found in  "C:/dev/tp/media/designs/original/Triangulated.xml"
Info    : ========== "9.6 Losange" ==========
Debug   : "9.6 Losange"  found in  "C:/dev/tp/media/designs/original/9-6 Losange.v1.xml"
Debug   : "9.6 Losange"  found in  "C:/dev/tp/media/designs/original/9-6 Losange.xml"
Debug   : "9.6 Losange"  found in  "C:/dev/tp/media/designs/original/African Birds Migration.v1.xml"
Debug   : "9.6 Losange"  found in  "C:/dev/tp/media/designs/original/African Birds Migration.xml"
Info    : ========== "9.6 Losange 2" ==========
Debug   : "9.6 Losange 2"  found in  "C:/dev/tp/media/designs/original/wawa.v1.xml"
Debug   : "9.6 Losange 2"  found in  "C:/dev/tp/media/designs/original/wawa.v2.xml"
Debug   : "9.6 Losange 2"  found in  "C:/dev/tp/media/designs/original/wawa.xml"
Info    : ========== "9.6 ~5" ==========
Debug   : "9.6 ~5"  found in  "C:/dev/tp/media/designs/original/9.6 almost 5.v1.xml"
Debug   : "9.6 ~5"  found in  "C:/dev/tp/media/designs/original/9.6 almost 5.xml"
Info    : ========== "Al-Mustansiriyya" ==========
Debug   : "Al-Mustansiriyya"  found in  "C:/dev/tp/media/designs/original/Abbasid Al-Mustansiriyya Madrasa.v1.xml"
Debug   : "Al-Mustansiriyya"  found in  "C:/dev/tp/media/designs/original/Abbasid Al-Mustansiriyya Madrasa.xml"
Debug   : "Al-Mustansiriyya"  found in  "C:/dev/tp/media/designs/original/Al-Mustansiriyya Gold.v1.xml"
Debug   : "Al-Mustansiriyya"  found in  "C:/dev/tp/media/designs/original/Al-Mustansiriyya Gold.xml"
Info    : ========== "Al-Mustansiriyya.v1" ==========
Debug   : "Al-Mustansiriyya.v1"  found in  "C:/dev/tp/media/designs/original/Al-Mustansiriyya Gold.v2.xml"
Info    : ========== "Alcazar De Seville 12 8 - Shorter" ==========
Info    :      not used
Info    : ========== "Alhambra - Golden Room" ==========
Debug   : "Alhambra - Golden Room"  found in  "C:/dev/tp/media/designs/new_designs/Alhambra - Golden Room.v1.xml"
Debug   : "Alhambra - Golden Room"  found in  "C:/dev/tp/media/designs/new_designs/Alhambra - Golden Room.xml"
Info    : ========== "Alhambra - Golden Room.v1" ==========
Info    :      not used
Info    : ========== "alhambra 16 in pieces" ==========
Info    :      not used
Info    : ========== "alhambra16" ==========
Info    :      not used
Info    : ========== "Almost" ==========
Debug   : "Almost"  found in  "C:/dev/tp/media/designs/original/Almost.v1.xml"
Debug   : "Almost"  found in  "C:/dev/tp/media/designs/original/Almost.xml"
Info    : ========== "Angel" ==========
Debug   : "Angel"  found in  "C:/dev/tp/media/designs/original/Alien TO.v1.xml"
Debug   : "Angel"  found in  "C:/dev/tp/media/designs/original/Alien TO.xml"
Info    : ========== "Bird" ==========
Info    :      not used
Info    : ========== "Bird.v1" ==========
Info    :      not used
Info    : ========== "Bird.v3" ==========
Debug   : "Bird.v3"  found in  "C:/dev/tp/media/designs/new_designs/Bird.v1.xml"
Debug   : "Bird.v3"  found in  "C:/dev/tp/media/designs/new_designs/Bird.v2.xml"
Debug   : "Bird.v3"  found in  "C:/dev/tp/media/designs/new_designs/Bird.xml"
Info    : ========== "Bird.v4" ==========
Info    :      not used
Info    : ========== "Bird.v5" ==========
Debug   : "Bird.v5"  found in  "C:/dev/tp/media/designs/new_designs/Bird.v3.xml"
Info    : ========== "Bird.v6" ==========
Info    :      not used
Info    : ========== "Bird.v7" ==========
Debug   : "Bird.v7"  found in  "C:/dev/tp/media/designs/new_designs/Bird.v4.xml"
Debug   : "Bird.v7"  found in  "C:/dev/tp/media/designs/new_designs/Bird.v5.xml"
Info    : ========== "bone" ==========
Debug   : "bone"  found in  "C:/dev/tp/media/designs/new_designs/Bone.xml"
Info    : ========== "bone.v1" ==========
Debug   : "bone.v1"  found in  "C:/dev/tp/media/designs/new_designs/Bone.v1.xml"
Info    : ========== "bone.v2" ==========
Debug   : "bone.v2"  found in  "C:/dev/tp/media/designs/new_designs/Bone.v2.xml"
Info    : ========== "Broug Esrefoglu" ==========
Info    :      not used
Warning : "Broug Esrefoglu" : tiled overlaps
Warning : "Broug Esrefoglu" : proto map intersecting edges
Warning : "Broug Esrefoglu" : fill map verify errors
Info    : ========== "BrougEsrefoglu2" ==========
Info    :      not used
Info    : ========== "Chikipoo" ==========
Debug   : "Chikipoo"  found in  "C:/dev/tp/media/designs/original/Chikipoo.v1.xml"
Debug   : "Chikipoo"  found in  "C:/dev/tp/media/designs/original/Chikipoo.xml"
Info    : ========== "csk_5" ==========
Debug   : "csk_5"  found in  "C:/dev/tp/media/designs/original/SimpleStar.v1.xml"
Debug   : "csk_5"  found in  "C:/dev/tp/media/designs/original/SimpleStar.v2.xml"
Debug   : "csk_5"  found in  "C:/dev/tp/media/designs/original/SimpleStar.xml"
Debug   : "csk_5"  found in  "C:/dev/tp/media/designs/original/star.v1.xml"
Debug   : "csk_5"  found in  "C:/dev/tp/media/designs/original/star.xml"
Info    : ========== "csk_7" ==========
Info    :      not used
Info    : ========== "csk_9" ==========
Info    :      not used
Info    : ========== "Curvy Hex" ==========
Debug   : "Curvy Hex"  found in  "C:/dev/tp/media/designs/original/Circus.v1.xml"
Debug   : "Curvy Hex"  found in  "C:/dev/tp/media/designs/original/Circus.xml"
Debug   : "Curvy Hex"  found in  "C:/dev/tp/media/designs/original/Curvy Hex.v1.xml"
Debug   : "Curvy Hex"  found in  "C:/dev/tp/media/designs/original/Curvy Hex.xml"
Info    : ========== "DAC 4 Design Name" ==========
Debug   : "DAC 4 Design Name"  found in  "C:/dev/tp/media/designs/new_designs/Test01.xml"
Info    : ========== "DAC 6" ==========
Info    :      not used
Warning : "DAC 6" : proto map verify errors
Info    : ========== "DAC 6.v1" ==========
Info    :      not used
Warning : "DAC 6.v1" : proto map verify errors
Warning : "DAC 6.v1" : fill map verify errors
Warning : "DAC 6.v1" : fill map intersecting edges
Info    : ========== "DAC 6x2" ==========
Info    :      not used
Warning : "DAC 6x2" : tiled overlaps
Warning : "DAC 6x2" : proto map intersecting edges
Warning : "DAC 6x2" : fill map verify errors
Info    : ========== "dac-4.v1" ==========
Info    :      not used
Info    : ========== "DAC6java" ==========
Info    :      not used
Info    : ========== "DAC6javaGood" ==========
Info    :      not used
Info    : ========== "DAC8" ==========
Info    :      not used
Info    : ========== "DAC8.v1" ==========
Info    :      not used
Warning : "DAC8.v1" : tiled overlaps
Warning : "DAC8.v1" : proto map intersecting edges
Info    : ========== "DAC8.v2" ==========
Info    :      not used
Info    : ========== "DAC8.v3" ==========
Info    :      not used
Warning : "DAC8.v3" : tiled overlaps
Warning : "DAC8.v3" : proto map intersecting edges
Info    : ========== "DAC8.v4" ==========
Debug   : "DAC8.v4"  found in  "C:/dev/tp/media/designs/new_designs/Broug Great Mosque Cordoba.v1.xml"
Debug   : "DAC8.v4"  found in  "C:/dev/tp/media/designs/new_designs/Broug Great Mosque Cordoba.v2.xml"
Debug   : "DAC8.v4"  found in  "C:/dev/tp/media/designs/new_designs/Broug Great Mosque Cordoba.xml"
Debug   : "DAC8.v4"  found in  "C:/dev/tp/media/designs/new_designs/Broug Great Mosque of Kairouan.v1.xml"
Debug   : "DAC8.v4"  found in  "C:/dev/tp/media/designs/new_designs/Broug Great Mosque of Kairouan.xml"
Debug   : "DAC8.v4"  found in  "C:/dev/tp/media/designs/new_designs/Broug Huand Hatun Complex.v1.xml"
Debug   : "DAC8.v4"  found in  "C:/dev/tp/media/designs/new_designs/Broug Huand Hatun Complex.v2.xml"
Debug   : "DAC8.v4"  found in  "C:/dev/tp/media/designs/new_designs/Broug Huand Hatun Complex.xml"
Debug   : "DAC8.v4"  found in  "C:/dev/tp/media/designs/new_designs/Test04.v1.xml"
Debug   : "DAC8.v4"  found in  "C:/dev/tp/media/designs/new_designs/Test04.v2.xml"
Debug   : "DAC8.v4"  found in  "C:/dev/tp/media/designs/new_designs/Test04.xml"
Debug   : "DAC8.v4"  found in  "C:/dev/tp/media/designs/new_designs/Test05.v1.xml"
Debug   : "DAC8.v4"  found in  "C:/dev/tp/media/designs/new_designs/Test05.xml"
Debug   : "DAC8.v4"  found in  "C:/dev/tp/media/designs/new_designs/Test07.v1.xml"
Debug   : "DAC8.v4"  found in  "C:/dev/tp/media/designs/new_designs/Test07.xml"
Debug   : "DAC8.v4"  found in  "C:/dev/tp/media/designs/new_designs/Test08.v2.xml"
Debug   : "DAC8.v4"  found in  "C:/dev/tp/media/designs/new_designs/Test08.v5.xml"
Debug   : "DAC8.v4"  found in  "C:/dev/tp/media/designs/new_designs/Test08.v6.xml"
Debug   : "DAC8.v4"  found in  "C:/dev/tp/media/designs/new_designs/Test08.xml"
Info    : ========== "DAC8.v5" ==========
Debug   : "DAC8.v5"  found in  "C:/dev/tp/media/designs/new_designs/Test10.xml"
Info    : ========== "DAC8.v6" ==========
Debug   : "DAC8.v6"  found in  "C:/dev/tp/media/designs/new_designs/Test11.v10.xml"
Debug   : "DAC8.v6"  found in  "C:/dev/tp/media/designs/new_designs/Test11.v11.xml"
Debug   : "DAC8.v6"  found in  "C:/dev/tp/media/designs/new_designs/Test11.v6.xml"
Debug   : "DAC8.v6"  found in  "C:/dev/tp/media/designs/new_designs/Test11.v8.xml"
Debug   : "DAC8.v6"  found in  "C:/dev/tp/media/designs/new_designs/Test11.v9.xml"
Info    : ========== "DAC8.v7" ==========
Info    :      not used
Info    : ========== "DAC8.v8" ==========
Debug   : "DAC8.v8"  found in  "C:/dev/tp/media/designs/new_designs/Test10.v1.xml"
Debug   : "DAC8.v8"  found in  "C:/dev/tp/media/designs/new_designs/Test10.v2.xml"
Debug   : "DAC8.v8"  found in  "C:/dev/tp/media/designs/new_designs/Test10.v3.xml"
Debug   : "DAC8.v8"  found in  "C:/dev/tp/media/designs/new_designs/Test10.v8.xml"
Debug   : "DAC8.v8"  found in  "C:/dev/tp/media/designs/new_designs/Test11.v1.xml"
Debug   : "DAC8.v8"  found in  "C:/dev/tp/media/designs/new_designs/Test11.v4.xml"
Debug   : "DAC8.v8"  found in  "C:/dev/tp/media/designs/new_designs/Test11.xml"
Info    : ========== "DAC8.v9" ==========
Debug   : "DAC8.v9"  found in  "C:/dev/tp/media/designs/new_designs/Test10.v10.xml"
Debug   : "DAC8.v9"  found in  "C:/dev/tp/media/designs/new_designs/Test10.v9.xml"
Info    : ========== "DAC8x2" ==========
Info    :      not used
Info    : ========== "DCTest1" ==========
Info    :      not used
Info    : ========== "DCTest1.v1" ==========
Info    :      not used
Warning : "DCTest1.v1" : proto map verify errors
Info    : ========== "Diamond Hive" ==========
Info    :      not used
Info    : ========== "First Curved" ==========
Debug   : "First Curved"  found in  "C:/dev/tp/media/designs/new_designs/First Curve.v1.xml"
Debug   : "First Curved"  found in  "C:/dev/tp/media/designs/new_designs/First Curve.xml"
Info    : ========== "First Curved.v3" ==========
Debug   : "First Curved.v3"  found in  "C:/dev/tp/media/designs/new_designs/First Curve.v2.xml"
Info    : ========== "First Curved.v4" ==========
Debug   : "First Curved.v4"  found in  "C:/dev/tp/media/designs/new_designs/First Curve.v3.xml"
Debug   : "First Curved.v4"  found in  "C:/dev/tp/media/designs/new_designs/First Curve.v4.xml"
Info    : ========== "Flat 3x3" ==========
Info    :      not used
Info    : ========== "Floor" ==========
Debug   : "Floor"  found in  "C:/dev/tp/media/designs/new_designs/Floor.xml"
Info    : ========== "Girih Crab" ==========
Debug   : "Girih Crab"  found in  "C:/dev/tp/media/designs/original/Girih Crab.v1.xml"
Debug   : "Girih Crab"  found in  "C:/dev/tp/media/designs/original/Girih Crab.xml"
Info    : ========== "Girih Inflation 10" ==========
Info    :      not used
Info    : ========== "Girih Inflation 10.v1" ==========
Debug   : "Girih Inflation 10.v1"  found in  "C:/dev/tp/media/designs/new_designs/GirihInflation10.v1.xml"
Debug   : "Girih Inflation 10.v1"  found in  "C:/dev/tp/media/designs/new_designs/GirihInflation10.xml"
Info    : ========== "Girih Inflation 10.v2" ==========
Debug   : "Girih Inflation 10.v2"  found in  "C:/dev/tp/media/designs/new_designs/GirihInflation10.v2.xml"
Info    : ========== "Girih Inflation 10.v3" ==========
Debug   : "Girih Inflation 10.v3"  found in  "C:/dev/tp/media/designs/new_designs/GirihInflation10.v3.xml"
Info    : ========== "Girih Star" ==========
Info    :      not used
Info    : ========== "Girih Tiles" ==========
Info    :      not used
Info    : ========== "GirihPat1" ==========
Debug   : "GirihPat1"  found in  "C:/dev/tp/media/designs/new_designs/GirihPat1.v1.xml"
Debug   : "GirihPat1"  found in  "C:/dev/tp/media/designs/new_designs/GirihPat1.v2.xml"
Debug   : "GirihPat1"  found in  "C:/dev/tp/media/designs/new_designs/GirihPat1.v3.xml"
Debug   : "GirihPat1"  found in  "C:/dev/tp/media/designs/new_designs/GirihPat1.xml"
Info    : ========== "GirihPat1.v1" ==========
Debug   : "GirihPat1.v1"  found in  "C:/dev/tp/media/designs/new_designs/GirihPat1.v6.xml"
Info    : ========== "GirihPat1.v2" ==========
Info    :      not used
Info    : ========== "Great Mosque of Malatya" ==========
Debug   : "Great Mosque of Malatya"  found in  "C:/dev/tp/media/designs/original/Malatya.v1.xml"
Debug   : "Great Mosque of Malatya"  found in  "C:/dev/tp/media/designs/original/Malatya.xml"
Info    : ========== "Green Mosque" ==========
Debug   : "Green Mosque"  found in  "C:/dev/tp/media/designs/original/Green Mosque.v1.xml"
Debug   : "Green Mosque"  found in  "C:/dev/tp/media/designs/original/Green Mosque.xml"
Info    : ========== "gTest1" ==========
Info    :      not used
Warning : "gTest1" : proto map verify errors
Info    : ========== "gTest2" ==========
Info    :      not used
Info    : ========== "Harem Lodge" ==========
Info    :      not used
Info    : ========== "Ilkhanid Uljaytu" ==========
Debug   : "Ilkhanid Uljaytu"  found in  "C:/dev/tp/media/designs/original/Ilkhanid Uljaytu.v1.xml"
Debug   : "Ilkhanid Uljaytu"  found in  "C:/dev/tp/media/designs/original/Ilkhanid Uljaytu.xml"
Info    : ========== "Ilkhanid Uljaytu Vault" ==========
Info    :      not used
Info    : ========== "Kumiko2" ==========
Debug   : "Kumiko2"  found in  "C:/dev/tp/media/designs/new_designs/Kumiko.v1.xml"
Debug   : "Kumiko2"  found in  "C:/dev/tp/media/designs/new_designs/Kumiko.xml"
Info    : ========== "leaf" ==========
Debug   : "leaf"  found in  "C:/dev/tp/media/designs/new_designs/leaf .xml"
Info    : ========== "Mamluk Quran" ==========
Debug   : "Mamluk Quran"  found in  "C:/dev/tp/media/designs/original/Mamluk Quran.v1.xml"
Debug   : "Mamluk Quran"  found in  "C:/dev/tp/media/designs/original/Mamluk Quran.xml"
Info    : ========== "Mexuar1" ==========
Debug   : "Mexuar1"  found in  "C:/dev/tp/media/designs/new_designs/Mexuar1.v1.xml"
Debug   : "Mexuar1"  found in  "C:/dev/tp/media/designs/new_designs/Mexuar1.v2.xml"
Debug   : "Mexuar1"  found in  "C:/dev/tp/media/designs/new_designs/Mexuar1.v3.xml"
Debug   : "Mexuar1"  found in  "C:/dev/tp/media/designs/new_designs/Mexuar1.xml"
Info    : ========== "More alien" ==========
Debug   : "More alien"  found in  "C:/dev/tp/media/designs/original/More alien.v1.xml"
Debug   : "More alien"  found in  "C:/dev/tp/media/designs/original/More alien.xml"
Info    : ========== "Mughal I'timad" ==========
Debug   : "Mughal I'timad"  found in  "C:/dev/tp/media/designs/original/pipes.v1.xml"
Debug   : "Mughal I'timad"  found in  "C:/dev/tp/media/designs/original/pipes.xml"
Info    : ========== "Museum1" ==========
Debug   : "Museum1"  found in  "C:/dev/tp/media/designs/new_designs/Museum1.xml"
Info    : ========== "Museum2" ==========
Info    :      not used
Warning : "Museum2" : tiled overlaps
Warning : "Museum2" : proto map intersecting edges
Info    : ========== "Museum2.v1" ==========
Info    :      not used
Warning : "Museum2.v1" : tiled overlaps
Warning : "Museum2.v1" : proto map intersecting edges
Warning : "Museum2.v1" : fill map verify errors
Info    : ========== "Museum3" ==========
Info    :      not used
Warning : "Museum3" : tiled overlaps
Warning : "Museum3" : proto map intersecting edges
Warning : "Museum3" : fill map verify errors
Info    : ========== "pbn_7" ==========
Debug   : "pbn_7"  found in  "C:/dev/tp/media/designs/original/pbn_7.v1.xml"
Debug   : "pbn_7"  found in  "C:/dev/tp/media/designs/original/pbn_7.xml"
Info    : ========== "Penrose" ==========
Debug   : "Penrose"  found in  "C:/dev/tp/media/designs/original/Penrose Dots.v1.xml"
Debug   : "Penrose"  found in  "C:/dev/tp/media/designs/original/Penrose Dots.xml"
Info    : ========== "Penrose Monster" ==========
Debug   : "Penrose Monster"  found in  "C:/dev/tp/media/designs/original/Elegant Monster.v1.xml"
Debug   : "Penrose Monster"  found in  "C:/dev/tp/media/designs/original/Elegant Monster.v2.xml"
Debug   : "Penrose Monster"  found in  "C:/dev/tp/media/designs/original/Elegant Monster.xml"
Debug   : "Penrose Monster"  found in  "C:/dev/tp/media/designs/original/Penrose Monster.v1.xml"
Debug   : "Penrose Monster"  found in  "C:/dev/tp/media/designs/original/Penrose Monster.xml"
Info    : ========== "PentaFlower" ==========
Info    :      not used
Info    : ========== "petal" ==========
Info    :      not used
Info    : ========== "petal.v2" ==========
Info    :      not used
Info    : ========== "petal.v3" ==========
Debug   : "petal.v3"  found in  "C:/dev/tp/media/designs/new_designs/Petal.xml"
Info    : ========== "phot_shape_2" ==========
Info    :      not used
Info    : ========== "Recursive Lock" ==========
Debug   : "Recursive Lock"  found in  "C:/dev/tp/media/designs/original/Locked Ribbon.v1.xml"
Debug   : "Recursive Lock"  found in  "C:/dev/tp/media/designs/original/Locked Ribbon.xml"
Info    : ========== "Sacawere" ==========
Info    :      not used
Info    : ========== "scratch3" ==========
Debug   : "scratch3"  found in  "C:/dev/tp/media/designs/new_designs/Test18.xml"
Info    : ========== "Seville Alcazar 12.8.6" ==========
Debug   : "Seville Alcazar 12.8.6"  found in  "C:/dev/tp/media/designs/original/Alcazar of Seville.v1.xml"
Debug   : "Seville Alcazar 12.8.6"  found in  "C:/dev/tp/media/designs/original/Alcazar of Seville.v2.xml"
Debug   : "Seville Alcazar 12.8.6"  found in  "C:/dev/tp/media/designs/original/Alcazar of Seville.xml"
Debug   : "Seville Alcazar 12.8.6"  found in  "C:/dev/tp/media/designs/original/Candyland.v1.xml"
Debug   : "Seville Alcazar 12.8.6"  found in  "C:/dev/tp/media/designs/original/Candyland.xml"
Debug   : "Seville Alcazar 12.8.6"  found in  "C:/dev/tp/media/designs/original/Mexican Suns.v1.xml"
Debug   : "Seville Alcazar 12.8.6"  found in  "C:/dev/tp/media/designs/original/Mexican Suns.xml"
Info    : ========== "spa0218" ==========
Debug   : "spa0218"  found in  "C:/dev/tp/media/designs/new_designs/Museum2.v1.xml"
Debug   : "spa0218"  found in  "C:/dev/tp/media/designs/new_designs/Museum2.v2.xml"
Debug   : "spa0218"  found in  "C:/dev/tp/media/designs/new_designs/Museum2.v3.xml"
Debug   : "spa0218"  found in  "C:/dev/tp/media/designs/new_designs/Museum2.v4.xml"
Debug   : "spa0218"  found in  "C:/dev/tp/media/designs/new_designs/Museum2.xml"
Info    : ========== "Square 12.4.3" ==========
Debug   : "Square 12.4.3"  found in  "C:/dev/tp/media/designs/original/12.4.3.v1.xml"
Debug   : "Square 12.4.3"  found in  "C:/dev/tp/media/designs/original/12.4.3.xml"
Debug   : "Square 12.4.3"  found in  "C:/dev/tp/media/designs/original/dentelle.v1.xml"
Debug   : "Square 12.4.3"  found in  "C:/dev/tp/media/designs/original/dentelle.xml"
Info    : ========== "Square Wave" ==========
Debug   : "Square Wave"  found in  "C:/dev/tp/media/designs/original/Add Doubt Sin.v1.xml"
Debug   : "Square Wave"  found in  "C:/dev/tp/media/designs/original/Add Doubt Sin.xml"
Info    : ========== "square_12" ==========
Debug   : "square_12"  found in  "C:/dev/tp/media/designs/original/thickness.v1.xml"
Debug   : "square_12"  found in  "C:/dev/tp/media/designs/original/thickness.xml"
Info    : ========== "Squoctogon" ==========
Debug   : "Squoctogon"  found in  "C:/dev/tp/media/designs/original/Squoctogon.v1.xml"
Debug   : "Squoctogon"  found in  "C:/dev/tp/media/designs/original/Squoctogon.xml"
Info    : ========== "Squoctogon 2" ==========
Debug   : "Squoctogon 2"  found in  "C:/dev/tp/media/designs/original/Squoc.v1.xml"
Debug   : "Squoctogon 2"  found in  "C:/dev/tp/media/designs/original/Squoc.xml"
Info    : ========== "Sultan Lodge" ==========
Debug   : "Sultan Lodge"  found in  "C:/dev/tp/media/designs/original/Sultan Lodge.v1.xml"
Debug   : "Sultan Lodge"  found in  "C:/dev/tp/media/designs/original/Sultan Lodge.xml"
Info    : ========== "Test Pattern1" ==========
Info    :      not used
Info    : ========== "Test1" ==========
Info    :      not used
Info    : ========== "Test1.v1" ==========
Info    :      not used
Info    : ========== "Timurid Tumaq Aqa" ==========
Debug   : "Timurid Tumaq Aqa"  found in  "C:/dev/tp/media/designs/original/Timurid Tumaq Aqa.v1.xml"
Debug   : "Timurid Tumaq Aqa"  found in  "C:/dev/tp/media/designs/original/Timurid Tumaq Aqa.v2.xml"
Debug   : "Timurid Tumaq Aqa"  found in  "C:/dev/tp/media/designs/original/Timurid Tumaq Aqa.xml"
Info    : ========== "tmp2" ==========
Debug   : "tmp2"  found in  "C:/dev/tp/media/designs/new_designs/Test16.v1.xml"
Debug   : "tmp2"  found in  "C:/dev/tp/media/designs/new_designs/Test16.v2.xml"
Debug   : "tmp2"  found in  "C:/dev/tp/media/designs/new_designs/Test16.xml"
Info    : ========== "tmp2020" ==========
Info    :      not used
Info    : ========== "tmp2020.v1" ==========
Info    :      not used
Warning : "tmp2020.v1" : tiled overlaps
Warning : "tmp2020.v1" : proto map intersecting edges
Warning : "tmp2020.v1" : fill map verify errors
Info    : ========== "tmp3" ==========
Debug   : "tmp3"  found in  "C:/dev/tp/media/designs/new_designs/Test17.v1.xml"
Debug   : "tmp3"  found in  "C:/dev/tp/media/designs/new_designs/Test17.xml"
Info    : ========== "tmp3.v1" ==========
Info    :      not used
Info    : ========== "tmp3.v2" ==========
Info    :      not used
Info    : ========== "tmp3concave" ==========
Debug   : "tmp3concave"  found in  "C:/dev/tp/media/designs/new_designs/Test17.v2.xml"
Info    : ========== "Tricorn" ==========
Info    :      not used
Info    : ========== "Trigon of nanites" ==========
Info    :      not used
Info    : ========== "Two Monsters" ==========
Info    :      not used
Info    : ========== "vanda_base" ==========
Debug   : "vanda_base"  found in  "C:/dev/tp/media/designs/new_designs/Vanda.xml"
Warning : "vanda_base" : tiled overlaps
Warning : "vanda_base" : proto map verify errors
Warning : "vanda_base" : proto map intersecting edges
Warning : "vanda_base" : fill map verify errors
Warning : "vanda_base" : fill map intersecting edges
Info    : ========== "vanda_base.v1" ==========
Debug   : "vanda_base.v1"  found in  "C:/dev/tp/media/designs/new_designs/Vanda.v1.xml"
Warning : "vanda_base.v1" : tiled overlaps
Warning : "vanda_base.v1" : proto map verify errors
Warning : "vanda_base.v1" : proto map intersecting edges
Warning : "vanda_base.v1" : fill map verify errors
Warning : "vanda_base.v1" : fill map intersecting edges
Info    : ========== "vanda_base.v2" ==========
Debug   : "vanda_base.v2"  found in  "C:/dev/tp/media/designs/new_designs/Vanda.v2.xml"
Warning : "vanda_base.v2" : tiled overlaps
Warning : "vanda_base.v2" : proto map verify errors
Warning : "vanda_base.v2" : proto map intersecting edges
Warning : "vanda_base.v2" : fill map verify errors
Warning : "vanda_base.v2" : fill map intersecting edges
Info    : ========== "vanda_base.v3" ==========
Debug   : "vanda_base.v3"  found in  "C:/dev/tp/media/designs/new_designs/Vanda.v3.xml"
Warning : "vanda_base.v3" : tiled overlaps
Warning : "vanda_base.v3" : proto map intersecting edges
Warning : "vanda_base.v3" : fill map verify errors
Warning : "vanda_base.v3" : fill map intersecting edges
Info    : ========== "vanda_base.v4" ==========
Debug   : "vanda_base.v4"  found in  "C:/dev/tp/media/designs/new_designs/Vanda.v4.xml"
Debug   : "vanda_base.v4"  found in  "C:/dev/tp/media/designs/new_designs/Vanda.v5.xml"
Debug   : "vanda_base.v4"  found in  "C:/dev/tp/media/designs/new_designs/Vanda.v6.xml"
Debug   : "vanda_base.v4"  found in  "C:/dev/tp/media/designs/new_designs/Vanda.v7.xml"
Debug   : "vanda_base.v4"  found in  "C:/dev/tp/media/designs/new_designs/Vanda.v8.xml"
Warning : "vanda_base.v4" : tiled overlaps
Warning : "vanda_base.v4" : proto map verify errors
Warning : "vanda_base.v4" : proto map intersecting edges
Warning : "vanda_base.v4" : fill map verify errors
Warning : "vanda_base.v4" : fill map intersecting edges
Info    : ========== "vanda_base.v5" ==========
Debug   : "vanda_base.v5"  found in  "C:/dev/tp/media/designs/new_designs/Vanda.v9.xml"
Warning : "vanda_base.v5" : tiled overlaps
Warning : "vanda_base.v5" : proto map verify errors
Warning : "vanda_base.v5" : proto map intersecting edges
Warning : "vanda_base.v5" : fill map verify errors
Warning : "vanda_base.v5" : fill map intersecting edges
Info    : ========== "vanda_base2.v2" ==========
Debug   : "vanda_base2.v2"  found in  "C:/dev/tp/media/designs/new_designs/Vanda2.xml"
Warning : "vanda_base2.v2" : tiled overlaps
Warning : "vanda_base2.v2" : proto map verify errors
Warning : "vanda_base2.v2" : proto map intersecting edges
Warning : "vanda_base2.v2" : fill map verify errors
Warning : "vanda_base2.v2" : fill map intersecting edges
Info    : ========== "vanda_base2.v3" ==========
Debug   : "vanda_base2.v3"  found in  "C:/dev/tp/media/designs/new_designs/Vanda2.v1.xml"
Debug   : "vanda_base2.v3"  found in  "C:/dev/tp/media/designs/new_designs/Vanda2.v2.xml"
Debug   : "vanda_base2.v3"  found in  "C:/dev/tp/media/designs/new_designs/Vanda2.v3.xml"
Debug   : "vanda_base2.v3"  found in  "C:/dev/tp/media/designs/new_designs/Vanda2.v4.xml"
Warning : "vanda_base2.v3" : tiled overlaps
Warning : "vanda_base2.v3" : proto map verify errors
Warning : "vanda_base2.v3" : proto map intersecting edges
Warning : "vanda_base2.v3" : fill map verify errors
Info    : ========== "var_5" ==========
Debug   : "var_5"  found in  "C:/dev/tp/media/designs/original/white stars.v1.xml"
Debug   : "var_5"  found in  "C:/dev/tp/media/designs/original/white stars.xml"
Info    : ========== "wonka" ==========
Debug   : "wonka"  found in  "C:/dev/tp/media/designs/original/wonka.v1.xml"
Debug   : "wonka"  found in  "C:/dev/tp/media/designs/original/wonka.v2.xml"
Debug   : "wonka"  found in  "C:/dev/tp/media/designs/original/wonka.v3.xml"
Debug   : "wonka"  found in  "C:/dev/tp/media/designs/original/wonka.xml"
